%YAML 1.1
%TAG !u! tag:unity3d.com,2011:
--- !u!1 &8763842315740657115
GameObject:
  m_ObjectHideFlags: 0
  m_CorrespondingSourceObject: {fileID: 0}
  m_PrefabInstance: {fileID: 0}
  m_PrefabAsset: {fileID: 0}
  serializedVersion: 6
  m_Component:
  - component: {fileID: 8763842315740657116}
  - component: {fileID: 8763842315740657117}
  m_Layer: 0
  m_Name: Cannon
  m_TagString: Untagged
  m_Icon: {fileID: 0}
  m_NavMeshLayer: 0
  m_StaticEditorFlags: 0
  m_IsActive: 1
--- !u!4 &8763842315740657116
Transform:
  m_ObjectHideFlags: 0
  m_CorrespondingSourceObject: {fileID: 0}
  m_PrefabInstance: {fileID: 0}
  m_PrefabAsset: {fileID: 0}
  m_GameObject: {fileID: 8763842315740657115}
  m_LocalRotation: {x: 0, y: 0, z: 0, w: 1}
  m_LocalPosition: {x: 0.724, y: 0.3, z: 0.853}
  m_LocalScale: {x: 1, y: 1, z: 1}
  m_Children: []
  m_Father: {fileID: 0}
  m_RootOrder: 0
  m_LocalEulerAnglesHint: {x: 0, y: 0, z: 0}
--- !u!114 &8763842315740657117
MonoBehaviour:
  m_ObjectHideFlags: 0
  m_CorrespondingSourceObject: {fileID: 0}
  m_PrefabInstance: {fileID: 0}
  m_PrefabAsset: {fileID: 0}
  m_GameObject: {fileID: 8763842315740657115}
  m_Enabled: 1
  m_EditorHideFlags: 0
  m_Script: {fileID: 11500000, guid: f524c3e4ed3966e4b802cacaa63ceada, type: 3}
  m_Name: 
  m_EditorClassIdentifier: 
  cannonBall: {fileID: 7710259876845504524, guid: c04f259d8dd2bf54eb297b08cb08b993,
    type: 3}
  smokeVfx: {fileID: 7105144575798791878, guid: 3ab0220dc4f4913428d0aa54f3fd8f01,
    type: 3}
  startTime: 0
  cooldown: 1
  shootSpeed: 5
