%YAML 1.1
%TAG !u! tag:unity3d.com,2011:
--- !u!1 &3873556015881634739
GameObject:
  m_ObjectHideFlags: 0
  m_CorrespondingSourceObject: {fileID: 0}
  m_PrefabInstance: {fileID: 0}
  m_PrefabAsset: {fileID: 0}
  serializedVersion: 6
  m_Component:
  - component: {fileID: 3873556015881634751}
  - component: {fileID: 165585584}
  m_Layer: 10
  m_Name: Rocks
  m_TagString: Untagged
  m_Icon: {fileID: 0}
  m_NavMeshLayer: 0
  m_StaticEditorFlags: 0
  m_IsActive: 1
--- !u!4 &3873556015881634751
Transform:
  m_ObjectHideFlags: 0
  m_CorrespondingSourceObject: {fileID: 0}
  m_PrefabInstance: {fileID: 0}
  m_PrefabAsset: {fileID: 0}
  m_GameObject: {fileID: 3873556015881634739}
  m_LocalRotation: {x: 0, y: 0, z: 0, w: 1}
  m_LocalPosition: {x: -3.7, y: 0, z: 6.48}
  m_LocalScale: {x: 1, y: 1, z: 1}
  m_Children:
  - {fileID: 3873556015747201695}
  m_Father: {fileID: 0}
  m_RootOrder: 0
  m_LocalEulerAnglesHint: {x: 0, y: 0, z: 0}
--- !u!135 &165585584
SphereCollider:
  m_ObjectHideFlags: 0
  m_CorrespondingSourceObject: {fileID: 0}
  m_PrefabInstance: {fileID: 0}
  m_PrefabAsset: {fileID: 0}
  m_GameObject: {fileID: 3873556015881634739}
  m_Material: {fileID: 0}
  m_IsTrigger: 1
  m_Enabled: 1
  serializedVersion: 2
  m_Radius: 1.4509056
  m_Center: {x: -0.12937498, y: 0, z: -0.42757928}
--- !u!1001 &3873556015747614473
PrefabInstance:
  m_ObjectHideFlags: 0
  serializedVersion: 2
  m_Modification:
    m_TransformParent: {fileID: 3873556015881634751}
    m_Modifications:
    - target: {fileID: 146236, guid: 802bd3dc24c20394ca2037c1b9c882a0, type: 3}
      propertyPath: m_Name
      value: rock07
      objectReference: {fileID: 0}
    - target: {fileID: 441750, guid: 802bd3dc24c20394ca2037c1b9c882a0, type: 3}
      propertyPath: m_LocalPosition.x
      value: 0
      objectReference: {fileID: 0}
    - target: {fileID: 441750, guid: 802bd3dc24c20394ca2037c1b9c882a0, type: 3}
      propertyPath: m_LocalPosition.y
      value: -0.52
      objectReference: {fileID: 0}
    - target: {fileID: 441750, guid: 802bd3dc24c20394ca2037c1b9c882a0, type: 3}
      propertyPath: m_LocalPosition.z
      value: 0
      objectReference: {fileID: 0}
    - target: {fileID: 441750, guid: 802bd3dc24c20394ca2037c1b9c882a0, type: 3}
      propertyPath: m_LocalRotation.x
      value: 0
      objectReference: {fileID: 0}
    - target: {fileID: 441750, guid: 802bd3dc24c20394ca2037c1b9c882a0, type: 3}
      propertyPath: m_LocalRotation.y
      value: 0
      objectReference: {fileID: 0}
    - target: {fileID: 441750, guid: 802bd3dc24c20394ca2037c1b9c882a0, type: 3}
      propertyPath: m_LocalRotation.z
      value: 0
      objectReference: {fileID: 0}
    - target: {fileID: 441750, guid: 802bd3dc24c20394ca2037c1b9c882a0, type: 3}
      propertyPath: m_LocalRotation.w
      value: 1
      objectReference: {fileID: 0}
    - target: {fileID: 441750, guid: 802bd3dc24c20394ca2037c1b9c882a0, type: 3}
      propertyPath: m_RootOrder
      value: 0
      objectReference: {fileID: 0}
    - target: {fileID: 441750, guid: 802bd3dc24c20394ca2037c1b9c882a0, type: 3}
      propertyPath: m_LocalEulerAnglesHint.x
      value: 0
      objectReference: {fileID: 0}
    - target: {fileID: 441750, guid: 802bd3dc24c20394ca2037c1b9c882a0, type: 3}
      propertyPath: m_LocalEulerAnglesHint.y
      value: 0
      objectReference: {fileID: 0}
    - target: {fileID: 441750, guid: 802bd3dc24c20394ca2037c1b9c882a0, type: 3}
      propertyPath: m_LocalEulerAnglesHint.z
      value: 0
      objectReference: {fileID: 0}
    m_RemovedComponents: []
  m_SourcePrefab: {fileID: 100100000, guid: 802bd3dc24c20394ca2037c1b9c882a0, type: 3}
--- !u!4 &3873556015747201695 stripped
Transform:
  m_CorrespondingSourceObject: {fileID: 441750, guid: 802bd3dc24c20394ca2037c1b9c882a0,
    type: 3}
  m_PrefabInstance: {fileID: 3873556015747614473}
  m_PrefabAsset: {fileID: 0}
